<svg xmlns="http://www.w3.org/2000/svg" width="19" height="15" fill="none" viewBox="0 0 19 15">
    <path fill="#fff" d="M18 7.538c.047-.095.07-.215.07-.359 0-.143-.023-.295-.07-.454-.047-.048-.082-.096-.106-.144-.024-.048-.059-.104-.106-.167L11.757.287C11.552.096 11.317 0 11.05 0c-.267 0-.503.096-.707.287-.188.208-.283.447-.283.718 0 .271.095.51.283.718l4.335 4.404H1.013c-.314 0-.561.091-.742.275-.18.183-.271.426-.271.73 0 .319.09.57.27.753.182.184.429.276.743.276h13.665l-4.335 4.38c-.188.207-.283.446-.283.717 0 .271.095.51.283.718.11.112.232.191.365.24.134.047.248.071.342.071.11 0 .231-.024.365-.072.133-.047.247-.127.342-.239l6.031-6.126.141-.144c.047-.048.071-.104.071-.168z"/>
</svg>
