<svg xmlns="http://www.w3.org/2000/svg" width="17" height="17" fill="none" viewBox="0 0 17 17">
    <g clip-path="url(#clip0)">
        <path fill="#70D44B" d="M5.838 16.152l.023.023.047.047.023.023c.032 0 .063.008.094.024l.047.023c.094.032.156.063.187.094h.188c.094.031.172.031.234 0h.094c.125-.031.234-.078.328-.14l.047-.047c.094-.063.149-.102.164-.118.016-.015.031-.039.047-.07l.023-.047 8.954-14.343c.156-.25.203-.516.14-.797-.062-.282-.21-.5-.445-.657-.235-.156-.492-.203-.774-.14-.28.062-.5.203-.656.422L6.306 13.714 1.76 9.261c-.218-.187-.468-.281-.75-.281-.28 0-.523.11-.726.328-.203.219-.297.477-.281.774.015.296.132.538.351.726l5.485 5.344z"/>
    </g>
    <defs>
        <clipPath id="clip0">
            <path fill="#fff" d="M0 0H16.547V16.453H0z"/>
        </clipPath>
    </defs>
</svg>
