<svg xmlns="http://www.w3.org/2000/svg" width="20" height="24" fill="none" viewBox="0 0 20 24">
    <path fill="#E12A82" d="M10 0C8.626 0 7.33.266 6.112.797c-1.202.531-2.256 1.25-3.161 2.156-.906.906-1.624 1.961-2.155 3.164C.266 7.336 0 8.633 0 10.007c0 1.845.476 3.595 1.429 5.25.952 1.657 2.006 3.11 3.161 4.36 1.156 1.25 2.225 2.25 3.209 3l1.592 1.195c.11.047.215.09.316.13.102.038.2.058.293.058.094 0 .191-.02.293-.059.101-.039.207-.082.316-.128l1.592-1.196c.984-.75 2.053-1.75 3.209-3 1.155-1.25 2.209-2.703 3.161-4.36.953-1.655 1.429-3.405 1.429-5.25 0-1.374-.265-2.671-.796-3.89-.531-1.203-1.25-2.258-2.155-3.164-.905-.906-1.96-1.625-3.161-2.156C12.67.266 11.374 0 10 0zm0 21.797c-.468-.344-1.155-.899-2.06-1.664-.89-.766-1.773-1.672-2.647-2.719-.875-1.047-1.64-2.21-2.295-3.492-.656-1.266-.984-2.57-.984-3.914 0-1.094.21-2.133.632-3.117.422-.97.992-1.813 1.71-2.532.718-.718 1.561-1.289 2.53-1.71.983-.422 2.021-.633 3.114-.633s2.131.21 3.115.632c.968.422 1.81.993 2.529 1.711.718.72 1.288 1.563 1.71 2.532.421.984.632 2.023.632 3.117 0 1.344-.328 2.648-.984 3.914-.655 1.281-1.42 2.445-2.295 3.492-.874 1.047-1.756 1.953-2.646 2.719-.906.765-1.593 1.32-2.061 1.664zM10 6c-1.093 0-2.034.395-2.822 1.184-.788.789-1.183 1.73-1.183 2.824 0 1.094.395 2.035 1.183 2.824.788.79 1.73 1.184 2.822 1.184 1.093 0 2.034-.395 2.822-1.184.789-.789 1.183-1.73 1.183-2.824 0-1.094-.395-2.035-1.183-2.824C12.034 6.394 11.092 6 10 6zm0 6c-.546 0-1.015-.195-1.405-.586-.39-.39-.586-.86-.586-1.406 0-.547.196-1.016.586-1.406.39-.391.859-.586 1.405-.586s1.015.195 1.405.586c.39.39.586.859.586 1.406 0 .547-.195 1.015-.586 1.406-.39.39-.859.586-1.405.586z"/>
</svg>
 